45
-1050
-572
0
354
32
0
1
-442
-821
0
4492
32
0
4
-1058
-527
0
32
32
0
2
-1178
293
0
82
72
0
5
-1178
293
0
82
72
0
5
-1178
293
0
82
72
0
5
-1178
293
0
82
72
0
5
-1178
293
0
82
72
0
5
-1178
293
0
82
72
0
5
-1178
293
0
82
72
0
5
-1178
293
0
82
72
0
5
-1178
293
0
82
72
0
5
-1178
293
0
82
72
0
5
-773
-775
0
200
32
0
1
-565
-645
0
200
32
0
1
-397
-500
0
200
32
0
1
-397
-500
0
200
32
0
1
4
-80
0
572
32
0
1
-1213
-478
0
32
220
0
1
-1108
-382
0
242
32
0
1
-889
-675
0
32
232
0
1
-658
-710
0
32
162
0
1
-481
-573
0
32
172
0
1
-774
-629
0
198
260
0
4
-281
-290
0
32
452
0
1
-331
-225
0
32
32
0
3
-369
-223
0
32
32
0
3
-412
-224
0
32
32
0
3
-453
-224
0
32
32
0
3
-1124
222
0
242
32
0
1
-651
220
0
702
32
0
4
84
231
0
372
32
0
1
274
205
0
32
542
0
1
161
460
0
198
32
0
1
161
460
0
198
32
0
1
-587
-466
0
174
324
0
4
-399
-366
0
198
232
0
4
-533
-278
0
32
32
0
3
-571
-278
0
32
32
0
3
-609
-277
0
32
32
0
3
-646
-278
0
32
32
0
3
-715
-474
0
32
32
0
3
-753
-472
0
32
32
0
3
-800
-474
0
32
32
0
3
-843
-475
0
32
32
0
3
