38
-498
-201
0
32
32
0
2
-288
-79
0
82
72
0
5
-288
-79
0
82
72
0
5
-288
-79
0
82
72
0
5
-288
-79
0
82
72
0
5
-483
-247
0
202
32
0
1
-569
287
0
32
572
0
1
-569
-113
0
32
232
0
4
-425
83
0
92
32
0
1
-363
-208
0
32
112
0
4
-363
-27
0
32
252
0
1
-340
557
0
432
32
0
1
-361
336
0
32
32
0
1
-11
-137
0
682
32
0
1
316
211
0
32
728
0
1
-127
407
0
72
32
0
1
-359
446
0
32
186
0
4
-225
84
0
242
32
0
4
-177
316
0
32
214
0
1
-177
140
0
32
142
0
4
-75
397
0
32
12
0
4
-42
406
0
32
32
0
1
87
406
0
32
32
0
1
152
406
0
32
32
0
1
215
406
0
32
32
0
1
23
406
0
32
32
0
1
184
397
0
32
12
0
4
56
397
0
32
12
0
4
120
397
0
32
12
0
4
-9
396
0
32
12
0
4
89
556
0
420
32
0
4
-100
227
0
162
32
0
1
199
229
0
202
32
0
1
-133
155
0
122
32
0
4
185
148
0
232
32
0
4
160
82
0
276
32
0
4
139
12
0
318
32
0
4
118
-52
0
364
32
0
4
