135
-387
398
0
32
32
0
2
-501
-6422
0
72
72
0
5
-390
336
0
32
82
0
1
-359
256
0
32
192
0
1
-328
161
0
32
162
0
1
-246
87
0
32
412
0
1
-215
233
0
32
272
0
1
-183
320
0
32
222
0
1
-301
442
0
268
32
0
1
-420
394
0
32
82
0
1
-276
-103
0
32
32
0
1
-611
-110
0
32
442
0
1
-306
-209
0
32
244
0
1
-480
96
0
292
32
0
1
-578
-242
0
32
182
0
4
-341
-241
0
32
180
0
4
-545
-258
0
32
152
0
4
-373
-256
0
32
152
0
4
-512
-273
0
32
122
0
4
-406
-272
0
32
120
0
4
-460
-514
0
32
32
0
1
-724
-825
0
32
32
0
1
-299
-1111
0
32
32
0
1
-303
-689
0
32
32
0
1
-611
-966
0
32
32
0
1
-582
-1518
0
100
32
0
1
-385
-1518
0
100
32
0
1
-682
-557
0
32
32
0
4
-1737
-1518
0
2202
32
0
4
959
-1518
0
2582
32
0
4
-121
-546
0
32
32
0
4
-982
-1071
0
32
32
0
4
-74
-854
0
32
32
0
4
-221
-768
0
32
32
0
4
-419
-813
0
32
32
0
4
-735
-1018
0
32
32
0
4
-632
-1218
0
32
32
0
4
-71
-1121
0
32
32
0
4
-889
-721
0
32
32
0
4
-205
-880
0
32
32
0
4
-414
-1136
0
32
32
0
4
-510
-1236
0
32
32
0
4
-589
-1354
0
32
32
0
4
-663
-1433
0
32
32
0
4
-308
-1277
0
32
32
0
4
-264
-479
0
32
32
0
4
-892
-893
0
32
32
0
4
-547
-1850
0
32
652
0
1
-419
-1851
0
32
642
0
1
-475
-2440
0
212
32
0
1
-216
387
0
32
32
0
4
-206
-612
0
32
32
0
4
-359
-750
0
32
32
0
4
-819
-597
0
32
32
0
4
-872
-1009
0
32
32
0
4
-762
-1191
0
32
32
0
4
-291
-859
0
32
32
0
4
172
-1116
0
32
32
0
1
-366
-1234
0
32
32
0
4
-622
-1078
0
32
32
0
4
-137
-878
0
32
32
0
1
263
-1028
0
32
32
0
4
291
-925
0
32
32
0
4
69
-884
0
32
32
0
4
381
-1141
0
32
32
0
4
206
-866
0
32
32
0
4
56
-1300
0
32
32
0
1
285
-1213
0
32
32
0
4
244
-1334
0
32
32
0
4
185
-1450
0
32
32
0
4
-250
-1459
0
32
32
0
1
-247
-1209
0
32
32
0
4
-166
-1216
0
32
32
0
1
-153
-1150
0
32
32
0
4
-630
-402
0
32
32
0
4
-257
-382
0
32
32
0
4
-764
-468
0
32
32
0
4
-957
-807
0
32
32
0
4
-562
-1141
0
32
32
0
4
-86
-2545
0
32
372
0
1
-177
-2686
0
32
342
0
1
-132
-3069
0
32
102
0
1
-763
-3133
0
32
322
0
1
-422
-3301
0
32
312
0
1
-206
-4250
0
32
222
0
1
-695
-4170
0
32
332
0
1
56
-4678
0
32
1302
0
1
-425
-4147
0
32
152
0
1
-886
-3601
0
32
782
0
1
-566
-5900
0
32
672
0
1
-441
-5913
0
32
672
0
1
1310
-5575
0
3432
32
0
4
-2086
-5582
0
3002
32
0
4
-491
-6475
0
482
32
0
1
-580
-3472
0
32
32
0
4
-1077
-2864
0
32
32
0
4
-1139
-3142
0
32
32
0
4
16
-2909
0
32
32
0
4
-996
-3095
0
32
32
0
4
-830
-4038
0
32
32
0
4
-655
-3387
0
32
32
0
4
-280
-3472
0
32
32
0
4
-180
-2483
0
32
32
0
4
-353
-3316
0
32
32
0
4
-417
-3505
0
32
32
0
4
-139
-3358
0
32
32
0
4
-1096
-2978
0
32
32
0
4
-1203
-2858
0
32
32
0
4
-309
-4478
0
32
32
0
4
-54
-4461
0
32
32
0
4
-110
-4409
0
32
32
0
4
-673
-2375
0
32
32
0
4
-633
-2250
0
32
32
0
4
-651
-4428
0
32
32
0
4
-157
-4354
0
32
32
0
4
-473
-4675
0
32
32
0
4
-382
-4598
0
32
32
0
4
-1268
-2605
0
32
32
0
4
-532
-4510
0
32
32
0
4
-748
-4348
0
32
32
0
4
-233
-3211
0
32
32
0
4
-653
-2308
0
32
32
0
4
180
-3917
0
32
32
0
4
32
-2123
0
32
32
0
4
113
-3752
0
32
32
0
4
-115
-2082
0
32
32
0
4
-13
-2832
0
32
32
0
4
-23
-2302
0
32
32
0
4
295
-3871
0
32
32
0
4
-502
-3387
0
32
32
0
4
126
-4002
0
32
32
0
4
-784
-4113
0
32
32
0
4
276
-3748
0
32
32
0
4
-713
-3282
0
32
32
0
4
-228
-5463
0
192
32
0
1
